{
  "images" : [
    {
      "idiom" : "iphone",
      "scale" : "1x"
    },
    {
      "resizing" : {
        "mode" : "9-part",
        "center" : {
          "mode" : "fill",
          "width" : 1,
          "height" : 1
        },
        "capInsets" : {
          "bottom" : 47,
          "top" : 46,
          "right" : 49,
          "left" : 30
        }
      },
      "idiom" : "iphone",
      "filename" : "darck_btn@2x.png",
      "scale" : "2x"
    },
    {
      "resizing" : {
        "mode" : "9-part",
        "center" : {
          "mode" : "fill",
          "width" : 1,
          "height" : 1
        },
        "capInsets" : {
          "bottom" : 67,
          "top" : 67,
          "right" : 56,
          "left" : 58
        }
      },
      "idiom" : "iphone",
      "filename" : "darck_btn@3x.png",
      "scale" : "3x"
    }
  ],
  "info" : {
    "version" : 1,
    "author" : "xcode"
  }
}