{
  "images" : [
    {
      "idiom" : "iphone",
      "scale" : "1x"
    },
    {
      "resizing" : {
        "mode" : "9-part",
        "center" : {
          "mode" : "fill",
          "width" : 1,
          "height" : 1
        },
        "capInsets" : {
          "bottom" : 40,
          "top" : 39,
          "right" : 18,
          "left" : 18
        }
      },
      "idiom" : "iphone",
      "filename" : "btn_white@2x.png",
      "scale" : "2x"
    },
    {
      "resizing" : {
        "mode" : "9-part",
        "center" : {
          "mode" : "fill",
          "width" : 1,
          "height" : 1
        },
        "capInsets" : {
          "bottom" : 60,
          "top" : 59,
          "right" : 27,
          "left" : 26
        }
      },
      "idiom" : "iphone",
      "filename" : "btn_white@3x.png",
      "scale" : "3x"
    }
  ],
  "info" : {
    "version" : 1,
    "author" : "xcode"
  }
}