{
  "images" : [
    {
      "idiom" : "universal",
      "scale" : "1x"
    },
    {
      "resizing" : {
        "mode" : "9-part",
        "center" : {
          "mode" : "fill",
          "width" : 1,
          "height" : 1
        },
        "capInsets" : {
          "bottom" : 12,
          "top" : 10,
          "right" : 10,
          "left" : 10
        }
      },
      "idiom" : "universal",
      "filename" : "GoalDistanceWhiteContainerRectangle@2x.png",
      "scale" : "2x"
    },
    {
      "resizing" : {
        "mode" : "9-part",
        "center" : {
          "mode" : "fill",
          "width" : 1,
          "height" : 1
        },
        "capInsets" : {
          "bottom" : 18,
          "top" : 15,
          "right" : 15,
          "left" : 15
        }
      },
      "idiom" : "universal",
      "filename" : "GoalDistanceWhiteContainerRectangle@3x.png",
      "scale" : "3x"
    }
  ],
  "info" : {
    "version" : 1,
    "author" : "xcode"
  }
}