{
  "images" : [
    {
      "idiom" : "iphone",
      "scale" : "1x"
    },
    {
      "resizing" : {
        "mode" : "9-part",
        "center" : {
          "mode" : "fill",
          "width" : 1,
          "height" : 1
        },
        "capInsets" : {
          "bottom" : 21,
          "top" : 22,
          "right" : 25,
          "left" : 25
        }
      },
      "idiom" : "iphone",
      "filename" : "red_small_btn@2x.png",
      "scale" : "2x"
    },
    {
      "resizing" : {
        "mode" : "9-part",
        "center" : {
          "mode" : "fill",
          "width" : 1,
          "height" : 1
        },
        "capInsets" : {
          "bottom" : 34,
          "top" : 34,
          "right" : 35,
          "left" : 37
        }
      },
      "idiom" : "iphone",
      "filename" : "red_small_btn@3x.png",
      "scale" : "3x"
    }
  ],
  "info" : {
    "version" : 1,
    "author" : "xcode"
  }
}